{
  "name": "Cyrano",
  "version": "1.0.0",
  "scripts": {
    "postinstall": "npm run typings install",
    "tsc": "tsc",
    "tsc:w": "tsc -w",
    "lite": "lite-server",
    "start": "concurrently \"npm run tsc:w\" ",
    "typings": "typings"
  },
  "license": "ISC",
  "dependencies": {
    "@angular/common@":"^2.0.0-rc.1",
    "angular-ui-sortable": "0.13.4",
    "angular2": "2.0.0-beta.12",
    "angular2-grid": "~0.4.0",
    "bootstrap": "3.3.6",
    "cli-width": "^2.0.0",
    "dragula": "^3.6.8",
    "es6-shim": "^0.35.0",
    "moment": "2.11.2",
    "ng2-bootstrap": "1.0.5",
    "ng2-bs3-modal": "0.2.1",
    "ng2-ckeditor": "1.0.0",
    "ng2-datepicker": "0.6.2",
    "ng2-dragula": "^1.1.5",
    "ng2-easy-table": "0.0.10",
    "ng2-table": "1.0.0-beta.0",
    "ng2-translate": "1.11.0",
    "reflect-metadata": "0.1.2",
    "rxjs": "5.0.0-beta.2",
    "systemjs": "0.19.24",
    "zone.js": "0.6.6",
    "ng2-img-cropper":"0.2.2",
    "ng2-dnd":"1.4.1"
  },
  "devDependencies": {
    "concurrently": "^2.0.0",
    "lite-server": "^2.1.0",
    "typescript": "^1.8.7",
    "typings": "^0.7.5",
    "cli-width": "^2.0.0"
  }
}
