{
    "clientResponse": {
        "customerUserSummaryVO": {
            "customerUserUUID": "1",
            "userLogo": "/dist/img/user2-160x160.jpg",
            "userName": "jessica@ibotsystems.com",
            "firstName": "Jessica",
            "lastName": "George",
            "title": "Secretary",
            "contact": "",
            "timeZone": "",
            "companyName": "GHX",
            "workPhone": "89898989898",
            "joiningDate": "07/15/2013",
            "contentPriority": "50",
            "isActive": "YES",
            "groupList": [
                {
                    "groupUUID": "",
                    "groupName": ""
                }
            ],
            "selectedGroupList": [
                {
                    "groupUUID": "",
                    "groupName": ""
                }
            ],
            "roleList": [
                {
                    "roleUUID": "",
                    "roleName": ""
                }
            ],
            "selectedRoleList": [
                {
                    "roleUUID": "",
                    "roleName": ""
                }
            ],
            "publishGroupList": [
                {
                    "groupUUID": "",
                    "groupName": ""
                }
            ],
            "selectedPublishGroupList": [
                {
                    "groupUUID": "",
                    "groupName": ""
                }
            ]
        }
    }
}