{
	"myThemesList":[
				{
				  "themeUUID":1,
				  "themeName":"TownHall Theme",
				  "author":"Andy",
				  "type":"Header",
				  "description":"Lorem Ipsum has ben the industry's standard dummy text ever since in 1500s",
				  "media":"../../dist/img/audioGrean.png",
				  "source":"../../dist/img/linkGray.png",
				  "updatedOn":"01/03/2016",
				  "updatedBy":"Andy",
				  "status":"Active"
				}],
				"total":"3"
   }