 {
    "status": "Ok",
    "clientResponse": {
        "programList": [
            {
                "programUUID": "1",
                "title": "Health and Safety",
                "authorTitle": "DR",
                "authorName": "Mike",
                "authorLogo": "",
                "description": "",
                "expiredOn": "28/03/2016",
                "publishOn": "21/03/2016",
                "priority": "",
                "type": "Program",
                "thumbNailFileName": "",
                "channel":"Strategy & Operations",
                "status": "New"
            },
            {
                "programUUID": "2",
                "title": "First Quarter Result 2016",
                "authorTitle": "CEO",
                "authorName": "Kevin",
                "authorLogo": "",
                "description": "",
                "expiredOn": "31/03/2016",
                "publishOn": "21/03/2016",
                "priority": "",
                "type": "Program",
                "thumbNailFileName": "",
                "channel":"Engagement,Wellness",
                "status": "New"
            },
            {
                "programUUID": "3",
                "title": "File IT Returns",
                "authorTitle": "CFO",
                "authorName": "Collins",
                "authorLogo": "",
                "description": "",
                "expiredOn": "01/04/2016",
                "publishOn": "21/03/2016",
                "priority": "",
                "type": "LiveStream",
                "thumbNailFileName": "",
                "channel":"Culture, Wellness",
                "status": "New"
            },
            {
                "programUUID": "4",
                "title": "Ergonomics",
                "authorTitle": "DR",
                "authorName": "Harlan",
                "authorLogo": "",
                "description": "",
                "expiredOn": "30/03/2016",
                "publishOn": "21/03/2016",
                "priority": "",
                "type": "",
                "thumbNailFileName": "",
                "channel":"Training & Development",
                "status": "InComplete"
            }
        ]
    },
    "total": "4"
}